<?xml version="1.0" encoding="utf-8"?>
<!-- Generator: Adobe Illustrator 18.0.0, SVG Export Plug-In . SVG Version: 6.00 Build 0)  -->
<!DOCTYPE svg PUBLIC "-//W3C//DTD SVG 1.1//EN" "http://www.w3.org/Graphics/SVG/1.1/DTD/svg11.dtd">
<svg version="1.1" id="Слой_1__x28_копия_x29_"
	 xmlns="http://www.w3.org/2000/svg" xmlns:xlink="http://www.w3.org/1999/xlink" x="0px" y="0px" viewBox="0 0 1222.4 857.1"
	 enable-background="new 0 0 1222.4 857.1" xml:space="preserve">
<g>
	<path fill="#6CA9E0" d="M454.3,618c35.5,14,104.2,43.9,227,31.2c47.9-6.8,87.3-19.7,128.9-38.4c8.9-4,11.2-5.5,10.9-6.8
		c-0.5-1.8-49.4-93.3-50.6-94.6c0-1.4-12.7,4.9-15.6,6.1c-28,11.2-64.6,19-95.5,22.3c-17.8,1.9-53.2,2.1-71,0
		C540.3,534,476.8,507,476.8,507c-1.6,3.4,3.5-5.1-29.7,58.5c-11.2,21.4-20.5,39.2-20.7,39.6C426.2,605.7,443.5,613.8,454.3,618z"/>
	<path display="none" fill="#E9A854" d="M754.4,348.8l5.4,10.2c0,0,4.9,9.2,6.3,12c4.1,7.9,13.6,25.8,16.5,31
		c1.4,2.5,3.9,7.2,5.5,10.5s3.6,7.1,4.5,8.5s1.8,3.2,2.1,4s2.4,4.7,4.6,8.5s4.9,8.8,6,11s3.8,7.2,5.9,11s10.2,17,11.3,19.3l10.9-7.5
		l0,0c28.7-21.9,57.3-52.9,77.3-83.8c10.4-16,13.7-21.9,21.4-37.7c25.1-51.8,35.5-96.5,35.5-152.3c0-39.1-5.6-73.9-17.6-109.5
		l-4.2-12.5l-76.2-0.3c-46.5-0.2-76.3,0.1-76.3,0.7c0,0.5,1,2.2,2.3,3.8c8.8,10.8,20.2,34.7,26.2,54.7c8.9,29.7,10.7,69.3,4.4,100.9
		c-2.8,14.1-10,35.1-16.6,48.2c-10.2,20.3-27.7,44.4-41.2,56.7l-5.1,4.7l-3.5,3.2L754.4,348.8z"/>
	<path display="none" fill="#E18C44" d="M826,605c0.4,0,7.6-3.8,15.9-8.4l0,0c83.8-46.4,148.8-112.7,192.3-195.9
		c11.3-21.7,27-59.3,25.3-60.7c-0.4-0.4-12.7-3.7-27.2-7.4c-14.6-3.7-38.2-9.8-52.5-13.6s-26.6-6.9-27.3-7.1
		c-0.9-0.2-2.7,3.1-5.3,9.7c-5.4,13.8-17.7,38.6-25.3,51.4c-29.6,49.1-70.2,90.2-118.1,119.6c-10,6.1-26,15-29.2,16.1
		c-0.4,0.1,20.1,38.7,35.8,67.5c7.1,13,13.3,24.8,13.9,26.3S825.6,605,826,605z"/>
	<path display="none" fill="#99C45A" d="M1205.3,71h-117v62.3c0,34.3-0.3,68.5-0.7,76L1087,223h118.3V71z"/>
	<path display="none" fill="#E18C44" d="M341.8,394.5c-15.3-21.9-30.2-49.5-39.4-73c-2.6-6.6-4.4-9.9-5.3-9.7
		c-0.7,0.2-13,3.4-27.3,7.1c-14.3,3.7-37.9,9.8-52.5,13.6c-14.6,3.7-26.8,7.1-27.2,7.4c-0.9,0.7,6,19.3,13.4,36
		c36.3,82.5,101,156.9,179.3,206.1c9.9,6.2,39.8,23.1,40.2,22.7c0.1-0.1,3-5.8,6.4-12.6s11.1-21.5,17.1-32.8
		c11.9-22.1,25.9-49.9,25.9-51.1c0-0.4-3-2.3-6.7-4.3C418.1,479.1,373,439.2,341.8,394.5z"/>
	<path display="none" fill="#F6ED54" d="M969.5,156c2,15.9,1.6,64.2-0.5,80.5c-2.9,21.8-10.6,55.7-15.7,69.1
		c-0.8,2.1-0.5,2.4,3.3,3.5c7.4,2,103.2,26.8,103.9,26.8c0.4,0,2.1-4.3,3.7-9.7h0c1.6-5.4,3.5-12,4.1-14.8s1.5-5.9,2-7
		c2-4.5,7.4-32.5,9.9-51c3.5-26.2,4-40.1,4-111.3V71h-67.6c-64,0-67.6,0.1-66.9,1.8C958.1,94.3,966,127.5,969.5,156z"/>
	<path display="none" fill="#D76446" d="M818.9,477.2c-0.2-0.4-12.2-22.7-26.6-49.7c-14.4-27-40.5-75.5-41-75.5s-4.1,2.3-7.9,5.1
		c-32.1,23.4-77.2,38.1-117.6,38.2c-44.3,0.2-87.4-14.7-127.5-44.1c-1.5-1.1-2.3-0.1-7.4,9.6l-5.7,10.9c0,0-16.1,31-29,55.7
		c-12.8,24.8-23.9,46.1-24.8,47.3c-1.7,2.8-2.3,2.2,13.2,12c9.6,6.1,34.7,19.2,36.6,19.2c0,0,0,0,0,0c0.2,0.1,0.3,0.2,0.5,0.3
		c6.9,3.1,16.2,6.2,16.2,6.2l10.9,4.3c25.5,10.1,54.2,16.7,83.3,19.2c6.9,0.6,14.3,1.2,16.5,1.5c7.6,0.7,41-0.4,54-1.9v0
		c25.3-2.9,52.6-8.9,72.1-16.1c10.8-3.9,28.8-11.5,28.8-11.5c0.3,0,3.8-1.5,7.8-3.2v0C786.4,498.1,819.8,478.7,818.9,477.2z"/>
	<path display="none" fill="#589255" d="M1086.4,240.3c-6.8,70.4-32.5,142.5-72.6,203.9c-18.7,28.5-35.7,49.3-62.9,76.4
		c-34.6,34.5-70.2,61.1-109.3,81.6c-6.5,3.4-11.9,6.3-12.1,6.5c-0.4,0.3,20.5,41.1,25.9,50.4c2.1,3.6,7.7,14.2,12.5,23.5
		c10.5,20.4,18.7,35.8,19.5,36.5c0.3,0.3,3.5,6.3,7.2,13.5c9.8,19.2,20.4,39.5,22.7,43.5c1.1,1.9,5.1,9.3,8.8,16.5
		c3.7,7.2,9.4,18.2,12.7,24.5c3.3,6.3,6.9,13.2,7.9,15.3l1.8,3.8h258V531.5l0,0V227h-118.6L1086.4,240.3z"/>
	<path display="none" fill="#5B7BBB" d="M930.9,811c-6.5-12.4-18.2-34.4-25.9-49c-7.7-14.6-19.7-37.3-26.7-50.5
		c-7-13.2-21.9-41.3-33-62.5s-20.6-38.8-20.9-39.2c-0.3-0.4-5.7,1.5-11.9,4.2c-42.5,18.8-81.7,29.7-131.1,36.5
		c-15.6,2.1-23,2.6-47,2.8c-31.9,0.3-47.5-0.5-69.5-3.4c-32.5-4.3-58.9-10.3-89.5-20.6c-11.2-3.8-38.1-14.3-44.2-17.4
		c-2-1-4.4-1.9-5.1-1.9c-0.9,0-7.1,10.9-15.7,27.3c-7.8,15-22.9,43.7-33.5,63.8s-29,55.2-41,78c-12,22.8-23.5,44.8-25.7,48.8
		l-3.9,7.3h318.7c175.3,0,318.5-0.4,318.3-0.8l0,0C942.9,833.8,937.4,823.3,930.9,811z"/>
	<path display="none" fill="#589255" d="M317.2,805.5c8.6-16.5,17.5-33.4,19.8-37.5s8.9-16.9,14.8-28.5c5.9-11.5,11.1-21.5,11.5-22
		c0.9-1.2,7.4-13.5,20-38c9.7-18.9,13.7-26.3,15-28c0.4-0.5,5.6-10.4,11.5-21.9l10.7-20.9l-11.3-6c-40.1-21.1-75.5-47.5-110.4-82.3
		c-27.2-27.1-44.3-47.8-62.9-76.4c-40.1-61.4-65.8-133.5-72.6-203.9l-1.3-13.3H43.3v609l129.1-0.3l129.1-0.3L317.2,805.5
		L317.2,805.5z"/>
	<path display="none" fill="#D65988" d="M826.2,189.8c0.1-39.5-11.2-78.2-31.9-109.6l-6.1-9.3H461.5l-5.3,8.3
		c-15.7,24.4-25.1,48.9-30.6,79.8c-2.4,13.3-2.4,47.7,0,61c6.4,36.1,19,65.6,39.3,92.1c3.6,4.7,25.2,27,25.2,27
		c18.8,18.1,47.6,34.7,75.1,43.3c16.3,5.1,39.7,8.9,58.2,9.4c2.5,0.1,9.9-0.3,16.5-0.9h0c41.9-3.5,85.3-19.1,114.7-44.4
		c0,0,21.9-19.8,25.3-23.6C779.8,322.9,832,263.5,826.2,189.8z"/>
	<path display="none" fill="#E9A854" d="M281.9,193.5c0,36.8,4.6,68.1,15.1,102.5c5.2,17.1,21.7,54.5,30.5,69.3
		c20.5,34.4,40.8,59.8,66.6,83.3c11.1,10.1,31,26.3,32.5,26.3c0.4,0,1.4-1,2.2-2.3v0c0.8-1.3,5.8-10.6,11-20.8
		c19.5-37.8,28.4-54.9,33.3-64c7.4-13.7,13.9-26.1,17.6-34l2.9-6.1l-3.4-3.5c-1.9-1.9-8-7.7-8-7.7l-6.3-6.7
		c-31-32.6-49.5-72.9-54.8-119.1c-1.7-14.8-0.7-43.5,2-58.1c4.8-26,15.8-53.6,30.3-76.3l3.7-5.8l-76.7,0.3l-76.7,0.3L299.5,84
		C287.5,119.6,281.9,154.4,281.9,193.5z"/>
	<path display="none" fill="#F6ED54" d="M169.3,253.5c2.5,18.5,7.9,46.5,9.9,51c0.5,1.1,1.4,4.3,2,7s2.5,9.4,4.1,14.8
		c2.5,8,3.3,9.7,4.7,9.3c0.9-0.3,23.1-6,49.2-12.6v0c63.1-16.1,58.1-14.6,57-17.4c-5.1-13.3-12.8-47.3-15.7-69.1
		c-2.2-16.3-2.5-64.6-0.5-80.5c3.5-28.5,11.4-61.7,19.7-83.3c0.6-1.7-2.9-1.8-66.9-1.8h-67.6l0,71.3
		C165.3,213.4,165.8,227.4,169.3,253.5z"/>
	<path display="none" fill="#99C45A" d="M161.9,209.3c-0.4-7.5-0.7-41.7-0.7-76V71h-117v152h118.3L161.9,209.3z"/>
	<path display="none" fill="#0D0F0F" d="M1146.8,67.9c-34.4,0-269.3-0.1-522-0.1s-487.6,0-522,0.1L40.3,68v386.6l0,0
		c0,352.1,0.1,386.6,1.6,386c0.9-0.3,263.9-0.6,584.5-0.6h582.9V68L1146.8,67.9z M1087.6,209.3c0.4-7.5,0.7-41.7,0.7-76V71h117v152
		H1087L1087.6,209.3z M1016.7,71h67.6v71.3c0,71.2-0.5,85.1-4,111.3c-2.5,18.5-7.9,46.5-9.9,51c-0.5,1.1-1.4,4.3-2,7
		s-2.5,9.4-4.1,14.8h0c-1.6,5.4-3.3,9.7-3.7,9.7c-0.8-0.1-96.5-24.8-103.9-26.8c-3.9-1.1-4.1-1.4-3.3-3.5
		c5.1-13.4,12.8-47.3,15.7-69.1c2.2-16.3,2.5-64.6,0.5-80.5c-3.5-28.5-11.4-61.7-19.7-83.3C949.1,71.1,952.7,71,1016.7,71z
		 M763.8,508c0,0-18,7.5-28.8,11.5c-19.5,7.1-46.9,13.2-72.1,16.1v0c-13,1.5-46.4,2.6-54,1.9c-2.2-0.2-9.6-0.9-16.5-1.5
		c-29.1-2.5-57.7-9.1-83.3-19.2l-10.9-4.3c0,0-9.3-3.1-16.2-6.2c-0.2-0.1-0.4-0.2-0.5-0.3c0,0,0,0,0,0c-1.9,0-27-13.1-36.6-19.2
		c-15.5-9.8-14.9-9.2-13.2-12c0.8-1.3,11.9-22.6,24.8-47.3c12.8-24.8,29-55.7,29-55.7l5.7-10.9c5.1-9.8,5.8-10.8,7.4-9.6
		c40,29.3,83.2,44.2,127.5,44.1c40.4-0.2,85.5-14.8,117.6-38.2c3.8-2.8,7.4-5.1,7.9-5.1s26.6,48.5,41,75.5
		c14.4,27,26.4,49.3,26.6,49.7c0.9,1.5-32.5,21-47.4,27.6v0C767.5,506.5,764,508,763.8,508z M465.6,504c3.7,1.9,6.7,3.8,6.7,4.3
		c0,1.2-14.1,29-25.9,51.1c-6,11.2-13.7,26-17.1,32.8s-6.2,12.5-6.4,12.6c-0.4,0.4-30.3-16.5-40.2-22.7
		c-78.3-49.2-143-123.6-179.3-206.1c-7.3-16.7-14.2-35.3-13.4-36c0.4-0.4,12.7-3.7,27.2-7.4c14.6-3.7,38.2-9.8,52.5-13.6
		c14.3-3.7,26.6-6.9,27.3-7.1c0.9-0.2,2.7,3.1,5.3,9.7c9.2,23.5,24.1,51.1,39.4,73C373,439.2,418.1,479.1,465.6,504z M447.1,565.4
		c33.5-63.9,29.6-55.7,29.6-55.7s63.6,26.2,111.5,29.8c17.8,2.1,53.2,2.4,71,0.5c30.9-3.2,65.7-11.8,93.8-23
		c2.9-1.2,17.3-7.8,17.3-6.4c1.2,1.3,50.1,91.5,50.6,93.2c0.3,1.3-2,2.8-10.9,6.8c-41.6,18.7-106.3,33.7-127.6,36.3
		c-117.9,10.2-192.7-15-228.2-29c-10.8-4.2-28.1-12.3-27.8-13C426.6,604.7,435.9,586.9,447.1,565.4z M810.3,576.1
		c-15.7-28.8-36.2-67.3-35.8-67.5c3.2-1.2,19.2-10,29.2-16.1c47.9-29.4,88.5-70.5,118.1-119.6c7.7-12.8,19.9-37.6,25.3-51.4
		c2.6-6.6,4.4-9.9,5.3-9.7c0.7,0.2,13,3.4,27.3,7.1s37.9,9.8,52.5,13.6c14.6,3.7,26.8,7.1,27.2,7.4c1.7,1.4-14,39-25.3,60.7
		c-43.5,83.2-108.5,149.5-192.3,195.9l0,0c-8.3,4.6-15.4,8.4-15.9,8.4c-0.4,0-1.2-1.2-1.8-2.7S817.4,589,810.3,576.1z M763.3,71h25
		l6.1,9.3c20.6,31.4,31.9,70.1,31.9,109.6c-0.1,49.6-17.8,96.6-50.1,133.1h0c-4.6,5.2-9.4,10.1-10.6,10.9l-2.3,1.5V71z M768.4,336.2
		c13.5-12.3,30.9-36.4,41.2-56.7c6.6-13.1,13.8-34.1,16.6-48.2c6.3-31.7,4.5-71.2-4.4-100.9c-6-20-17.5-43.9-26.2-54.7
		c-1.3-1.6-2.3-3.2-2.3-3.8c0-0.6,29.8-0.8,76.3-0.7l76.2,0.3L950,84c12,35.6,17.6,70.4,17.6,109.5c0,55.8-10.4,100.5-35.5,152.3
		c-7.7,15.8-11,21.7-21.4,37.7c-20,30.9-48.6,61.9-77.3,83.8l0,0l-10.9,7.5c-1.1-2.3-9.2-15.4-11.3-19.3s-4.8-8.8-5.9-11
		s-3.8-7.2-6-11s-4.2-7.7-4.6-8.5s-1.3-2.6-2.1-4s-2.8-5.2-4.5-8.5s-4.1-8-5.5-10.5c-3-5.2-12.5-23.1-16.5-31
		c-1.5-2.9-6.3-12-6.3-12l-5.4-10.2l5.4-4.7l3.5-3.2L768.4,336.2z M485.3,71h275v267.9l-7.2,6.2c-29.5,25.4-71.4,42.4-113.3,45.9h0
		c-6.6,0.6-14,1-16.5,0.9c-18.4-0.5-41.9-4.3-58.2-9.4c-27.5-8.6-56.3-25.2-75.1-43.3l-4.8-4.6V71z M482.3,71v130
		c0,71.5-0.1,130-0.3,130c-0.9,0-12.3-12.6-17.1-18.9c-20.2-26.5-32.8-56.1-39.3-92.1c-2.4-13.3-2.4-47.7,0-61
		c5.5-30.8,14.9-55.4,30.6-79.8l5.3-8.3H482.3z M380.5,71.2l76.7-0.3l-3.7,5.8C439,99.4,428,127,423.2,153
		c-2.7,14.6-3.7,43.2-2,58.1c5.3,46.2,23.8,86.5,54.8,119.1l6.3,6.7c0,0,6.1,5.8,8,7.7l3.4,3.5l-2.9,6.1c-3.8,7.9-10.2,20.2-17.6,34
		c-4.9,9.1-13.8,26.2-33.3,64c-5.2,10.1-10.2,19.5-11,20.8v0c-0.8,1.3-1.8,2.3-2.2,2.3c-1.5-0.1-21.4-16.2-32.5-26.3
		c-25.8-23.5-46-48.9-66.6-83.3c-8.8-14.8-25.3-52.2-30.5-69.3c-10.5-34.4-15.1-65.7-15.1-102.5c0-39.1,5.6-73.9,17.6-109.5
		l4.2-12.5L380.5,71.2z M232.9,71c64,0,67.6,0.1,66.9,1.8c-8.4,21.6-16.2,54.8-19.7,83.3c-2,15.9-1.6,64.2,0.5,80.5
		c2.9,21.7,10.6,55.7,15.7,69.1c1.1,2.8,6.1,1.3-57,17.4v0c-26.1,6.7-48.3,12.4-49.2,12.6c-1.4,0.4-2.2-1.3-4.7-9.3
		c-1.7-5.4-3.5-12.1-4.1-14.8s-1.5-5.9-2-7c-2-4.5-7.4-32.5-9.9-51c-3.5-26.2-4-40.1-4-111.3l0-71.3H232.9z M44.3,71h117v62.3
		c0,34.3,0.3,68.5,0.7,76l0.7,13.7H44.3V71z M172.4,835.8L43.3,836V227h118.6l1.3,13.3c6.8,70.4,32.5,142.5,72.6,203.9
		c18.7,28.6,35.8,49.3,62.9,76.4c34.9,34.8,70.3,61.1,110.4,82.3l11.3,6l-10.7,20.9c-5.9,11.5-11.1,21.3-11.5,21.9
		c-1.3,1.7-5.3,9.1-15,28c-12.6,24.5-19.1,36.8-20,38c-0.4,0.5-5.6,10.5-11.5,22c-5.9,11.6-12.6,24.4-14.8,28.5s-11.2,21-19.8,37.5
		v0l-15.7,30L172.4,835.8z M624.8,835H306.1l3.9-7.3c2.2-4,13.7-25.9,25.7-48.8c12-22.8,30.4-57.9,41-78s25.6-48.8,33.5-63.8
		c8.5-16.3,14.8-27.3,15.7-27.3c0.8,0,3.1,0.8,5.1,1.9c6.2,3.1,33,13.7,44.2,17.4c30.6,10.3,57,16.3,89.5,20.6
		c22,2.9,37.6,3.6,69.5,3.4c24-0.2,31.4-0.7,47-2.8c49.4-6.8,88.6-17.7,131.1-36.5c6.2-2.7,11.6-4.6,11.9-4.2
		c0.3,0.4,9.8,18.1,20.9,39.2s26,49.3,33,62.5c7,13.2,19,35.9,26.7,50.5c7.7,14.6,19.4,36.6,25.9,49c6.5,12.4,12,22.8,12.2,23.3l0,0
		C943.3,834.6,800,835,624.8,835z M1206.3,531.5L1206.3,531.5l0,304.5h-258l-1.8-3.8c-1-2.1-4.6-8.9-7.9-15.3
		c-3.3-6.3-9.1-17.3-12.7-24.5c-3.7-7.2-7.6-14.6-8.8-16.5c-2.4-4-13-24.3-22.7-43.5c-3.6-7.2-6.8-13.2-7.2-13.5
		c-0.8-0.7-9-16.1-19.5-36.5c-4.8-9.3-10.4-19.9-12.5-23.5c-5.3-9.3-26.3-50.1-25.9-50.4c0.2-0.1,5.6-3,12.1-6.5
		c39.1-20.5,74.7-47.1,109.3-81.6c27.2-27.1,44.3-47.8,62.9-76.4c40.1-61.4,65.8-133.5,72.6-203.9l1.3-13.3h118.6V531.5z"/>
</g>
<g id="Слой_1" display="none">
	<path display="inline" fill="#0D0F0F" d="M1146.8,67.9c-34.4,0-269.3-0.1-522-0.1s-487.6,0-522,0.1L40.3,68v386.6l0,0
		c0,352.1,0.1,386.6,1.6,386c0.9-0.3,263.9-0.6,584.5-0.6h582.9V454V68L1146.8,67.9z M1087.6,209.3c0.4-7.5,0.7-41.7,0.7-76V71h58.5
		h58.5v76v76h-59.2H1087L1087.6,209.3z M1016.7,71h67.6v71.3c0,71.2-0.5,85.1-4,111.3c-2.5,18.5-7.9,46.5-9.9,51
		c-0.5,1.1-1.4,4.3-2,7s-2.5,9.4-4.1,14.8h0c-1.6,5.4-3.3,9.7-3.7,9.7c-0.8-0.1-96.5-24.8-103.9-26.8c-3.9-1.1-4.1-1.4-3.3-3.5
		c5.1-13.4,12.8-47.3,15.7-69.1c2.2-16.3,2.5-64.6,0.5-80.5c-3.5-28.5-11.4-61.7-19.7-83.3C949.1,71.1,952.7,71,1016.7,71z
		 M1034.2,400.7c-43.5,83.2-108.5,149.5-192.3,195.9l0,0c-8.3,4.6-15.4,8.4-15.9,8.4c-0.4,0-1.2-1.2-1.8-2.7s-6.8-13.3-13.9-26.3
		c-15.7-28.8-36.2-67.3-35.8-67.5c3.2-1.2,19.2-10,29.2-16.1c47.9-29.4,88.5-70.5,118.1-119.6c7.7-12.8,19.9-37.6,25.3-51.4
		c2.6-6.6,4.4-9.9,5.3-9.7c0.7,0.2,13,3.4,27.3,7.1s37.9,9.8,52.5,13.6c14.6,3.7,26.8,7.1,27.2,7.4
		C1061.2,341.4,1045.5,379,1034.2,400.7z M763.3,203.1V71h12.5h12.5l6.1,9.3c20.6,31.4,31.9,70.1,31.9,109.6
		c-0.1,49.6-17.8,96.6-50.1,133.1h0c-4.6,5.2-9.4,10.1-10.6,10.9l-2.3,1.5V203.1z M768.4,336.2c13.5-12.3,30.9-36.4,41.2-56.7
		c6.6-13.1,13.8-34.1,16.6-48.2c6.3-31.7,4.5-71.2-4.4-100.9c-6-20-17.5-43.9-26.2-54.7c-1.3-1.6-2.3-3.2-2.3-3.8
		c0-0.6,29.8-0.8,76.3-0.7l76.2,0.3L950,84c12,35.6,17.6,70.4,17.6,109.5c0,55.8-10.4,100.5-35.5,152.3c-7.7,15.8-11,21.7-21.4,37.7
		c-20,30.9-48.6,61.9-77.3,83.8l0,0c-12.2,9.3-12.2,9.3-12.2,6.8c0-1.1-0.5-2.3-1.1-2.7c-0.6-0.4-2-2.5-3.1-4.8s-3.7-7.3-5.9-11.1
		s-4.8-8.8-5.9-11s-3.8-7.2-6-11s-4.2-7.7-4.6-8.5s-1.3-2.6-2.1-4s-2.8-5.2-4.5-8.5s-4.1-8-5.5-10.5c-3-5.2-12.5-23.1-16.5-31
		c-2.6-5.1-2.8-6.3-2.8-17.8l0-12.3L768.4,336.2z M764.7,377c0.8,0.8,13.2,23.5,27.6,50.5c14.4,27,26.4,49.3,26.6,49.7
		c0.9,1.5-32.5,21-47.4,27.6v0c-4,1.8-7.5,3.2-7.8,3.2s-0.5-29.8-0.5-66.2C763.3,385.1,763.5,375.8,764.7,377z M763.6,512.3l3.1-1.2
		c1.7-0.6,3.4-0.8,3.8-0.4c1.2,1.3,50.1,91.5,50.6,93.2c0.3,1.3-2,2.8-10.9,6.8c-41.6,18.7-83.4,30.6-127.6,36.3h0
		c-19.8,2.5-21.2,2.4-12.1-1c33.7-12.5,62-38.1,78.2-70.6c8.1-16.3,13.3-35.5,14.4-53.1L763.6,512.3z M588.3,539.6
		c17.8,2.1,53.2,2.4,71,0.5c30.9-3.2,65.7-11.8,93.8-23c2.9-1.2,5.8-2.1,6.4-2.1c1.4,0,0.4,11.9-2.1,25
		c-3.4,17.5-10.3,34.5-19.7,48.7c-23.7,35.7-61.3,57.8-104,61.2v0c-7,0.6-12.9,1-13.2,0.9c-0.3-0.1-4.7-0.5-9.6-0.9
		c-31.7-2.7-59.9-15.7-83.1-38.2c-11.5-11.2-19.3-21.5-26.4-35c-9.2-17.4-15.5-41.9-14.8-57.5l0.3-7.2l9,3.7
		C524,527.7,555.2,535.7,588.3,539.6z M498.1,512.5l64.2-0.3c35.3-0.1,92.8-0.1,127.8,0c71.5,0.3,66.1-0.6,44.8,7.2
		c-19.5,7.1-46.9,13.2-72.1,16.1v0c-13,1.5-46.4,2.6-54,1.9c-2.2-0.2-9.6-0.9-16.5-1.5c-29.1-2.5-57.7-9.1-83.3-19.2L498.1,512.5z
		 M760.3,438L760.3,438l0,70H623.4c-75.3,0-137.1-0.3-137.5-0.7c-0.4-0.4-0.7-31-0.7-68.1v-67.5l5.7-10.9c5.1-9.8,5.8-10.8,7.4-9.6
		c40,29.3,83.2,44.2,127.5,44.1c40.4-0.2,85.5-14.8,117.6-38.2c3.8-2.8,7.4-5.1,7.9-5.1s2.8,3.6,5,8l4,8V438z M485.3,351.6
		c0-5.8,0.4-10.6,0.8-10.6c0.4,0,2.3,1.6,4.2,3.5l3.4,3.5l-2.9,6.1C485.9,364.1,485.3,363.8,485.3,351.6z M754.4,348.8l2.7-2.3
		l2.7-2.3l0.3,3.9c0.2,2.2,0.2,5.5,0,7.4l-0.3,3.5l-2.7-5.1L754.4,348.8z M485.3,202.8V71h137.5h137.5v134v134l-7.2,6.2
		c-29.5,25.4-71.4,42.4-113.3,45.9h0c-6.6,0.6-14,1-16.5,0.9c-18.4-0.5-41.9-4.3-58.2-9.4c-27.5-8.6-56.3-25.2-75.1-43.3l-4.8-4.6
		V202.8z M490.8,562c13.6,38,47.7,71.5,85.7,84.5l0,0c9.1,3.1,6.5,3.1-14.7,0c-38.7-5.6-72-14.5-107.5-28.4
		c-10.8-4.2-28.1-12.3-27.8-13c0.2-0.4,9.5-18.2,20.7-39.6c33.5-63.9,30.3-58.6,33.4-56.2c1.3,1,1.9,4.2,2.7,15.3
		C484.3,539.3,486.4,549.7,490.8,562z M465.6,504c3.7,1.9,6.7,3.8,6.7,4.3c0,1.2-14.1,29-25.9,51.1c-6,11.2-13.7,26-17.1,32.8
		s-6.2,12.5-6.4,12.6c-0.4,0.4-30.3-16.5-40.2-22.7c-78.3-49.2-143-123.6-179.3-206.1c-7.3-16.7-14.2-35.3-13.4-36
		c0.4-0.4,12.7-3.7,27.2-7.4c14.6-3.7,38.2-9.8,52.5-13.6c14.3-3.7,26.6-6.9,27.3-7.1c0.9-0.2,2.7,3.1,5.3,9.7
		c9.2,23.5,24.1,51.1,39.4,73C373,439.2,418.1,479.1,465.6,504z M431.6,474.8c0.8-1.3,11.9-22.6,24.8-47.3
		c12.8-24.8,23.9-45.9,24.6-47c1.1-1.7,1.3,8.4,1.3,61.8c0,38.7-0.4,63.7-0.9,63.7c-1.9,0-27-13.1-36.6-19.2
		C429.2,477.1,429.8,477.6,431.6,474.8z M471.9,71h10.4v130c0,71.5-0.1,130-0.3,130c-0.9,0-12.3-12.6-17.1-18.9
		c-20.2-26.5-32.8-56.1-39.3-92.1c-2.4-13.3-2.4-47.7,0-61c5.5-30.8,14.9-55.4,30.6-79.8l5.3-8.3H471.9z M380.5,71.2l76.7-0.3
		l-3.7,5.8C439,99.4,428,127,423.2,153c-2.7,14.6-3.7,43.2-2,58.1c5.3,46.2,23.8,86.5,54.8,119.1l6.3,6.7v16.5
		c0,18.3,0.3,17.3-9.2,34.7c-4.9,9.1-13.8,26.2-33.3,64c-5.2,10.1-10.2,19.5-11,20.8v0c-0.8,1.3-1.8,2.3-2.2,2.3
		c-1.5-0.1-21.4-16.2-32.5-26.3c-25.8-23.5-46-48.9-66.6-83.3c-8.8-14.8-25.3-52.2-30.5-69.3c-10.5-34.4-15.1-65.7-15.1-102.5
		c0-39.1,5.6-73.9,17.6-109.5l4.2-12.5L380.5,71.2z M232.9,71c64,0,67.6,0.1,66.9,1.8c-8.4,21.6-16.2,54.8-19.7,83.3
		c-2,15.9-1.6,64.2,0.5,80.5c2.9,21.7,10.6,55.7,15.7,69.1c1.1,2.8,6.1,1.3-57,17.4v0c-26.1,6.7-48.3,12.4-49.2,12.6
		c-1.4,0.4-2.2-1.3-4.7-9.3c-1.7-5.4-3.5-12.1-4.1-14.8s-1.5-5.9-2-7c-2-4.5-7.4-32.5-9.9-51c-3.5-26.2-4-40.1-4-111.3l0-71.3H232.9
		z M44.3,147V71h58.5h58.5v62.3c0,34.3,0.3,68.5,0.7,76l0.7,13.7h-59.2H44.3V147z M172.4,835.8L43.3,836V531.5V227h59.3h59.3
		l1.3,13.3c6.8,70.4,32.5,142.5,72.6,203.9c18.7,28.6,35.8,49.3,62.9,76.4c34.9,34.8,70.3,61.1,110.4,82.3l11.3,6l-10.7,20.9
		c-5.9,11.5-11.1,21.3-11.5,21.9c-1.3,1.7-5.3,9.1-15,28c-12.6,24.5-19.1,36.8-20,38c-0.4,0.5-5.6,10.5-11.5,22
		c-5.9,11.6-12.6,24.4-14.8,28.5s-11.2,21-19.8,37.5v0l-15.7,30L172.4,835.8z M624.8,835H306.1l3.9-7.3c2.2-4,13.7-25.9,25.7-48.8
		c12-22.8,30.4-57.9,41-78s25.6-48.8,33.5-63.8c8.5-16.3,14.8-27.3,15.7-27.3c0.8,0,3.1,0.8,5.1,1.9c6.2,3.1,33,13.7,44.2,17.4
		c30.6,10.3,57,16.3,89.5,20.6c22,2.9,37.6,3.6,69.5,3.4c24-0.2,31.4-0.7,47-2.8c49.4-6.8,88.6-17.7,131.1-36.5
		c6.2-2.7,11.6-4.6,11.9-4.2c0.3,0.4,9.8,18.1,20.9,39.2s26,49.3,33,62.5c7,13.2,19,35.9,26.7,50.5c7.7,14.6,19.4,36.6,25.9,49
		c6.5,12.4,12,22.8,12.2,23.3l0,0C943.3,834.6,800,835,624.8,835z M1206.3,531.5L1206.3,531.5l0,304.5h-129h-129l-1.8-3.8
		c-1-2.1-4.6-8.9-7.9-15.3c-3.3-6.3-9.1-17.3-12.7-24.5c-3.7-7.2-7.6-14.6-8.8-16.5c-2.4-4-13-24.3-22.7-43.5
		c-3.6-7.2-6.8-13.2-7.2-13.5c-0.8-0.7-9-16.1-19.5-36.5c-4.8-9.3-10.4-19.9-12.5-23.5c-5.3-9.3-26.3-50.1-25.9-50.4
		c0.2-0.1,5.6-3,12.1-6.5c39.1-20.5,74.7-47.1,109.3-81.6c27.2-27.1,44.3-47.8,62.9-76.4c40.1-61.4,65.8-133.5,72.6-203.9l1.3-13.3
		h59.3h59.3V531.5z"/>
</g>
</svg>
